(DEVICE FILE: 02CD4BE3C70576C341D710602A67_C6_FP-GRM155-0_05-IPC_C_GRM155R71C224KA12D)

PACKAGE 'FP-GRM155-0_05-IPC_C'
CLASS IC
PINCOUNT 2

PINORDER 02CD4BE3C70576C341D710602A67_C6 1 2
FUNCTION G1 02CD4BE3C70576C341D710602A67_C6 1 2

PACKAGEPROP PART_NAME 02cd4be3c70576c341d710602a67_C6
PACKAGEPROP VALUE GRM155R71C224KA12D

END
