(DEVICE FILE: 0781710002_MOLEX_0781710002_0781710002)

PACKAGE MOLEX_0781710002
CLASS IC
PINCOUNT 4

PINORDER 0781710002_MOLEX_0781710002_078 1 2 SHIELD SHIELD__1
FUNCTION G1 0781710002_MOLEX_0781710002_078 1 2 S1 S2

PACKAGEPROP PART_NAME 0781710002
PACKAGEPROP VALUE 0781710002

END
