(DEVICE FILE: 2082940020_2082940020_2082940020)

PACKAGE 2082940020
CLASS IC
PINCOUNT 4

PINORDER 2082940020_2082940020_208294002 1 2 MP1 MP2
FUNCTION G1 2082940020_2082940020_208294002 1 2 MP1 MP2

PACKAGEPROP PART_NAME 2082940020
PACKAGEPROP VALUE 2082940020

END
