(DEVICE FILE: 236180D848D6139A670B325EA685_C5_FP-CL21B106KOQNNNE-MFG_CL21B106KOQNNNE)

PACKAGE 'FP-CL21B106KOQNNNE-MFG'
CLASS IC
PINCOUNT 2

PINORDER 236180D848D6139A670B325EA685_C5 1 2
FUNCTION G1 236180D848D6139A670B325EA685_C5 1 2

PACKAGEPROP PART_NAME 236180d848d6139a670b325ea685_C5
PACKAGEPROP VALUE CL21B106KOQNNNE

END
