(DEVICE FILE: 245897078002829_2_245897078002829_245897078002829 - used for device: '245897078002829+_2_245897078002829_245897078002829+')

PACKAGE 245897078002829
CLASS IC
PINCOUNT 86

PINORDER '245897078002829+_2_245897078002' 1 10 11 12 13 14 15 16 17 18 19 2 20 21 22 23 24 25 26 27,
      28 29 3 30 31 32 33 34 35 36 37 38 39 4 40 41 42 43 44 45 46 47 48 49 5 50 51 52 53 54 55 56,
      57 58 59 6 60 61 62 63 64 65 66 67 68 69 7 70 71 72 73 74 75 76 77 78 8 9 POWER1 POWER2 POWER3,
      POWER4 POWER5 POWER6 POWER7 POWER8
FUNCTION G1 '245897078002829+_2_245897078002' 1 10 11 12 13 14 15 16 17 18 19 2 20 21 22 23 24 25 26,
      27 28 29 3 30 31 32 33 34 35 36 37 38 39 4 40 41 42 43 44 45 46 47 48 49 5 50 51 52 53 54 55,
      56 57 58 59 6 60 61 62 63 64 65 66 67 68 69 7 70 71 72 73 74 75 76 77 78 8 9 79 80 81 82 83 84,
      85 86

PACKAGEPROP PART_NAME '245897078002829+_2'
PACKAGEPROP VALUE '245897078002829+'

END
