(DEVICE FILE: C_0N_CAPC1005N_01UF25V - used for device: 'C_0N_CAPC1005N_0.1UF 25V')

PACKAGE CAPC1005N
CLASS IC
PINCOUNT 2

PINORDER 'C_0N_CAPC1005N_0.1UF 25V' 1 2
FUNCTION G1 'C_0N_CAPC1005N_0.1UF 25V' 1 2

PACKAGEPROP PART_NAME C_0N
PACKAGEPROP VALUE '0.1uF 25V'

END
