(DEVICE FILE: C_0N_CAP_0805_10UF25V - used for device: 'C_0N_CAP_0805_10UF 25V')

PACKAGE CAP_0805
CLASS IC
PINCOUNT 2

PINORDER 'C_0N_CAP_0805_10UF 25V' 1 2
FUNCTION G1 'C_0N_CAP_0805_10UF 25V' 1 2

PACKAGEPROP PART_NAME C_0N
PACKAGEPROP VALUE '10uF 25V'

END
