(DEVICE FILE: C_0N_CAPC2012N_47UF)

PACKAGE CAPC2012N
CLASS IC
PINCOUNT 2

PINORDER C_0N_CAPC2012N_47UF 1 2
FUNCTION G1 C_0N_CAPC2012N_47UF 1 2

PACKAGEPROP PART_NAME C_0N
PACKAGEPROP VALUE 47uF

END
