(DEVICE FILE: C_1N_CAPC1005N_01UF - used for device: 'C_1N_CAPC1005N_0.1UF')

PACKAGE CAPC1005N
CLASS IC
PINCOUNT 2

PINORDER 'C_1N_CAPC1005N_0.1UF' 1 2
FUNCTION G1 'C_1N_CAPC1005N_0.1UF' 1 2

PACKAGEPROP PART_NAME C_1N
PACKAGEPROP VALUE '0.1uF'

END
