(DEVICE FILE: CMP-2000-06498-1_3_TAYO-JMK212BBJ476MG-T_L_JMK212BBJ476MG-T)

PACKAGE 'TAYO-JMK212BBJ476MG-T_L'
CLASS IC
PINCOUNT 2

PINORDER 'CMP-2000-06498-1_3_TAYO-JMK212B' 1 2
FUNCTION G1 'CMP-2000-06498-1_3_TAYO-JMK212B' 1 2

PACKAGEPROP PART_NAME 'CMP-2000-06498-1_3'
PACKAGEPROP VALUE 'JMK212BBJ476MG-T'

END
