(DEVICE FILE: FEAST_U1_1_QFN32_5X5MM__FEASTBPOL12 - used for device: 'FEAST_U1_1_QFN32_5X5MM__FEAST/BPOL12')

PACKAGE QFN32_5X5MM_
CLASS IC
PINCOUNT 33

PINORDER FEAST_U1_1_QFN32_5X5MM__FEAST/B BGP_EA BOOTS EN GND GND1 GND11 HALFSW NC NC16 PGND PGND10,
      PGND2 PGND3 PGND8 PGND9 PGOOD PHASE PHASE4 PHASE5 PHASE6 PHASE7 PTAT PVIN PVIN13 PVIN14 PVIN15,
      REF1V2 RF TAB V33DR VI VIN VOUT
FUNCTION G1 FEAST_U1_1_QFN32_5X5MM__FEAST/B 21 10 32 3 5 20 23 16 31 7 19 8 9 17 18 2 11 12 13 14 15,
      25 26 27 28 29 22 1 33 6 4 30 24

PACKAGEPROP PART_NAME FEAST_U1_1
PACKAGEPROP VALUE FEAST/bPOL12

END
