(DEVICE FILE: GRM033R60J105MEA2D_0_CAPC0603X35N_GRM033R60J105MEA2D)

PACKAGE CAPC0603X35N
CLASS IC
PINCOUNT 2

PINORDER GRM033R60J105MEA2D_0_CAPC0603X3 1 2
FUNCTION G1 GRM033R60J105MEA2D_0_CAPC0603X3 1 2

PACKAGEPROP PART_NAME GRM033R60J105MEA2D_0
PACKAGEPROP VALUE GRM033R60J105MEA2D

END
