(DEVICE FILE: LPGBT)

PACKAGE BGA289X17
CLASS IC
PINCOUNT 289

PINORDER TYPE8 HSINN HSINP HSOUTN HSOUTP
PINUSE TYPE8 IN IN OUT OUT
FUNCTION G1 TYPE8 M1 L1 G1 H1

PINORDER TYPE7 EDIN00N EDIN00P EDIN01N EDIN01P EDIN02N EDIN02P EDIN03N EDIN03P EDIN10N EDIN10P,
      EDIN11N EDIN11P EDIN12N EDIN12P EDIN13N EDIN13P EDIN20N EDIN20P EDIN21N EDIN21P EDIN22N,
      EDIN22P EDIN23N EDIN23P EDIN30N EDIN30P EDIN31N EDIN31P EDIN32N EDIN32P EDIN33N EDIN33P,
      EDIN40N EDIN40P EDIN41N EDIN41P EDIN42N EDIN42P EDIN43N EDIN43P EDIN50N EDIN50P EDIN51N,
      EDIN51P EDIN52N EDIN52P EDIN53N EDIN53P EDIN60N EDIN60P EDIN61N EDIN61P EDIN62N EDIN62P,
      EDIN63N EDIN63P EDOUT00N EDOUT00P EDOUT01N EDOUT01P EDOUT02N EDOUT02P EDOUT03N EDOUT03P,
      EDOUT10N EDOUT10P EDOUT11N EDOUT11P EDOUT12N EDOUT12P EDOUT13N EDOUT13P EDOUT20N EDOUT20P,
      EDOUT21N EDOUT21P EDOUT22N EDOUT22P EDOUT23N EDOUT23P EDOUT30N EDOUT30P EDOUT31N EDOUT31P,
      EDOUT32N EDOUT32P EDOUT33N EDOUT33P
PINUSE TYPE7 IN IN IN IN IN IN IN IN IN IN IN IN IN IN IN IN IN IN IN IN IN IN IN IN IN IN IN IN IN,
      IN IN IN IN IN IN IN IN IN IN IN IN IN IN IN IN IN IN IN IN IN IN IN IN IN IN IN OUT OUT OUT,
      OUT OUT OUT OUT OUT OUT OUT OUT OUT OUT OUT OUT OUT OUT OUT OUT OUT OUT OUT OUT OUT OUT OUT,
      OUT OUT OUT OUT OUT OUT
FUNCTION G2 TYPE7 U5 T5 U6 T6 U7 T7 U8 T8 U11 T11 U12 T12 U13 T13 U14 T14 P17 P16 N17 N16 M17 M16,
      L17 L16 H17 H16 G17 G16 F17 F16 E17 E16 A14 B14 A13 B13 A12 B12 A11 B11 A10 B10 A9 B9 A8 B8 A7,
      B7 A6 B6 A5 B5 A4 B4 A3 B3 R5 P5 R6 P6 R7 P7 R8 P8 R9 P9 R10 P10 R11 P11 R12 P12 C13 D13 C12,
      D12 C11 D11 C10 D10 C9 D9 C8 D8 C7 D7 C6 D6

PINORDER TYPE6 PSCLK0N PSCLK0P PSCLK1N PSCLK1P PSCLK2N PSCLK2P PSCLK3N PSCLK3P
PINUSE TYPE6 OUT OUT OUT OUT OUT OUT OUT OUT
FUNCTION G3 TYPE6 N4 M4 N5 M5 N6 M6 N7 M7

PINORDER TYPE5 ADC0 ADC1 ADC2 ADC3 ADC4 ADC5 ADC6 ADC7 ECLK28N ECLK28P EDINECN EDINECP EDOUTECN,
      EDOUTECP GPIO0 GPIO1 GPIO10 GPIO11 GPIO12 GPIO13 GPIO14 GPIO15 GPIO2 GPIO3 GPIO4 GPIO5 GPIO6,
      GPIO7 GPIO8 GPIO9 M0SCL M0SDA M1SCL M1SDA M2SCL M2SDA RSTOUTB VDAC
PINUSE TYPE5 UNSPEC UNSPEC UNSPEC UNSPEC UNSPEC UNSPEC UNSPEC UNSPEC OUT OUT IN IN OUT OUT BI BI BI,
      BI BI BI BI BI BI BI BI BI BI BI BI BI OUT BI OUT BI OUT BI OUT OUT
FUNCTION G4 TYPE5 A2 A1 B2 B1 C3 C2 C1 D1 U16 T16 U17 T17 R17 R16 N13 N12 M8 N8 L7 L6 L5 R3 M11 N11,
      M10 N10 L9 M9 N9 L8 E7 F7 E6 F6 E5 F5 T2 D2

PINORDER TYPE4 TSTOUT0 TSTOUT1 TSTOUT2 TSTOUT3 TSTOUT4N TSTOUT4P TSTOUT5N TSTOUT5P
PINUSE TYPE4 OUT OUT OUT OUT OUT OUT OUT OUT
FUNCTION G5 TYPE4 F13 F12 F11 F10 E12 E13 E10 E11

PINORDER TYPE3 ADR0 ADR1 ADR2 ADR3 BOOTCNF0 BOOTCNF1 EDINECTERM LOCKMODE MODE0 MODE1 MODE2 MODE3,
      PORDIS READY REFCLKN REFCLKP RSTB SLSCL SLSDA
PINUSE TYPE3 IN IN IN IN IN IN IN IN IN IN IN IN IN OUT IN IN IN IN BI
FUNCTION G6 TYPE3 E9 F9 E8 F8 U1 T3 E2 E1 G5 K5 P3 P2 T1 R2 P1 R1 D3 U2 U3

PINORDER TYPE2 ECLK0N ECLK0P ECLK10N ECLK10P ECLK11N ECLK11P ECLK12N ECLK12P ECLK13N ECLK13P ECLK14N,
      ECLK14P ECLK15N ECLK15P ECLK16N ECLK16P ECLK17N ECLK17P ECLK18N ECLK18P ECLK19N ECLK19P ECLK1N,
      ECLK1P ECLK20N ECLK20P ECLK21N ECLK21P ECLK22N ECLK22P ECLK23N ECLK23P ECLK24N ECLK24P ECLK25N,
      ECLK25P ECLK26N ECLK26P ECLK27N ECLK27P ECLK2N ECLK2P ECLK3N ECLK3P ECLK4N ECLK4P ECLK5N,
      ECLK5P ECLK6N ECLK6P ECLK7N ECLK7P ECLK8N ECLK8P ECLK9N ECLK9P
PINUSE TYPE2 OUT OUT OUT OUT OUT OUT OUT OUT OUT OUT OUT OUT OUT OUT OUT OUT OUT OUT OUT OUT OUT OUT,
      OUT OUT OUT OUT OUT OUT OUT OUT OUT OUT OUT OUT OUT OUT OUT OUT OUT OUT OUT OUT OUT OUT OUT,
      OUT OUT OUT OUT OUT OUT OUT OUT OUT OUT OUT
FUNCTION G7 TYPE2 U4 T4 L15 L14 K17 K16 J17 J16 K15 K14 J15 J14 H15 H14 G15 G14 F15 F14 E15 E14 D17,
      D16 R4 P4 D15 D14 C17 C16 B17 B16 A17 A16 C15 C14 A15 B15 C5 D5 C4 D4 U9 T9 U10 T10 R13 P13,
      R14 P14 U15 T15 R15 P15 N15 N14 M15 M14

PINORDER TYPE1 GND GND15 GND16 GND17 GND18 GND19 GND27 GND28 GND29 GND30 GND31 GND32 GND33 GND34,
      GND35 GND36 GND50 GND51 GND56 GNDA GNDA54 GNDRX GNDRX37 GNDRX38 GNDRX39 GNDRX40 GNDRX41 GNDTX,
      GNDTX42 GNDTX43 GNDTX44 GNDTX45 GNDTX46 RSV0 RSV1 VDD1V2 VDD1V21 VDD1V210 VDD1V211 VDD1V212,
      VDD1V213 VDD1V214 VDD1V22 VDD1V23 VDD1V24 VDD1V247 VDD1V248 VDD1V249 VDD1V25 VDD1V255 VDD1V26,
      VDD1V27 VDD1V28 VDD1V29 VDDA1V2 VDDA1V252 VDDF2V5 VDDF2V520 VDDRX1V2 VDDRX1V221 VDDRX1V222,
      VDDRX1V223 VDDTX1V2 VDDTX1V224 VDDTX1V225 VDDTX1V226 VREF VREF53
PINUSE TYPE1 POWER POWER POWER POWER POWER POWER POWER POWER POWER POWER POWER POWER POWER POWER,
      POWER POWER POWER POWER POWER POWER POWER POWER POWER POWER POWER POWER POWER POWER POWER,
      POWER POWER POWER POWER UNSPEC UNSPEC POWER POWER POWER POWER POWER POWER POWER POWER POWER,
      POWER POWER POWER POWER POWER POWER POWER POWER POWER POWER POWER POWER UNSPEC UNSPEC POWER,
      POWER POWER POWER POWER POWER POWER POWER UNSPEC UNSPEC
FUNCTION G8 TYPE1 H5 G6 H6 G7 H7 G8 J13 H13 G13 J12 H12 G12 H11 G11 H10 G10 H8 G9 H9 F4 G4 N1 K2 L2,
      M2 N2 K1 F1 J1 F2 G2 H2 J2 L4 K4 K6 J6 L12 K12 J11 L11 K11 K7 J7 K8 J8 K9 J9 L10 J5 M13 L13,
      K13 M12 E4 E3 J10 K10 K3 L3 M3 N3 F3 G3 H3 J3 H4 J4

PACKAGEPROP PART_NAME LPGBT_IC1_1
PACKAGEPROP VALUE LPGBT

END
