(DEVICE FILE: R1_2N_RESC0603_3K1 - used for device: 'R1_2N_RESC0603_3K 1%')

PACKAGE RESC0603
CLASS IC
PINCOUNT 2

PINORDER 'R1_2N_RESC0603_3K 1%' NN_PIN_1 NN_PIN_2
FUNCTION G1 'R1_2N_RESC0603_3K 1%' 1 2

PACKAGEPROP PART_NAME R1_2N
PACKAGEPROP VALUE '3K 1%'

END
