(DEVICE FILE: R1_2N_RESC1005N_15K1 - used for device: 'R1_2N_RESC1005N_1.5K 1%')

PACKAGE RESC1005N
CLASS IC
PINCOUNT 2

PINORDER 'R1_2N_RESC1005N_1.5K 1%' NN_PIN_1 NN_PIN_2
FUNCTION G1 'R1_2N_RESC1005N_1.5K 1%' 1 2

PACKAGEPROP PART_NAME R1_2N
PACKAGEPROP VALUE '1.5K 1%'

END
