(DEVICE FILE: R1_2N_RESC0603_2K)

PACKAGE RESC0603
CLASS IC
PINCOUNT 2

PINORDER R1_2N_RESC0603_2K NN_PIN_1 NN_PIN_2
FUNCTION G1 R1_2N_RESC0603_2K 1 2

PACKAGEPROP PART_NAME R1_2N
PACKAGEPROP VALUE 2K

END
