(DEVICE FILE: RES-2_R4_RESC0402_1005__L_316K)

PACKAGE RESC0402_1005__L
CLASS IC
PINCOUNT 2

PINORDER 'RES-2_R4_RESC0402_1005__L_316K' 1 2
FUNCTION G1 'RES-2_R4_RESC0402_1005__L_316K' 1 2

PACKAGEPROP PART_NAME 'RES-2_R4'
PACKAGEPROP VALUE 316k

END
