(DEVICE FILE: RESISTOR_CAP_0402_39K - used for device: 'RESISTOR_CAP_0402_3.9K')

PACKAGE CAP_0402
CLASS IC
PINCOUNT 2

PINORDER 'RESISTOR_CAP_0402_3.9K' 1 2
FUNCTION G1 'RESISTOR_CAP_0402_3.9K' 1 2

PACKAGEPROP PART_NAME RESISTOR
PACKAGEPROP VALUE '3.9K'

END
