(DEVICE FILE: SMAC30-7J-RC_0_SMAC30-7J-RC_SMAC30-7J-RC)

PACKAGE 'SMAC30-7J-RC'
CLASS IC
PINCOUNT 2

PINORDER 'SMAC30-7J-RC_0_SMAC30-7J-RC_SMA' 1 2
FUNCTION G1 'SMAC30-7J-RC_0_SMAC30-7J-RC_SMA' 1 2

PACKAGEPROP PART_NAME 'SMAC30-7J-RC_0'
PACKAGEPROP VALUE 'SMAC30-7J-RC'

END
