(DEVICE FILE: VTRX_DF40C-20-40DS-04V_IC2_VTRX__DF40C-40DS-04V - used for device: 'VTRX+_DF40C-2.0-40DS-0.4V_IC2_VTRX__DF40C-40DS-0.4V')

PACKAGE VTRX_
CLASS IC
PINCOUNT 40

PINORDER 'VTRX+_DF40C-2.0-40DS-0.4V_IC2_V' DIS GND GND10 GND13 GND16 GND17 GND2 GND3 GND4 GND5 GND6,
      GND8 GND9 N/C N/C11 N/C12 N/C14 N/C15 RSSI RSTN RXN RXP SCL SDA TH1 TH2 TX1N TX1P TX2N TX2P,
      TX3N TX3P TX4N TX4P VCCR2V5 VCCR2V51 VCCT1V2 VCCT1V218 VCCT2V5 VCCT2V57
PINUSE 'VTRX+_DF40C-2.0-40DS-0.4V_IC2_V' BI UNSPEC UNSPEC UNSPEC UNSPEC UNSPEC UNSPEC UNSPEC UNSPEC,
      UNSPEC UNSPEC UNSPEC UNSPEC UNSPEC UNSPEC UNSPEC UNSPEC UNSPEC BI BI OUT OUT IN BI UNSPEC,
      UNSPEC IN UNSPEC IN IN IN IN IN IN POWER POWER POWER POWER POWER POWER
FUNCTION G1 'VTRX+_DF40C-2.0-40DS-0.4V_IC2_V' 16 5 18 24 30 36 11 17 23 29 35 6 12 2 20 22 26 28 4,
      14 7 9 10 8 32 34 13 15 19 21 25 27 31 33 1 3 38 40 37 39

PACKAGEPROP PART_NAME 'VTRX+_DF40C-2.0-40DS-0.4V_IC2'
PACKAGEPROP VALUE 'DF40C-40DS-0.4V'

END
