(---------------------------------------------------------------------)
(                                                                     )
(    Dangling Line and Via Report                                     )
(                                                                     )
(    Drawing          : ETL_RBF_v2.brd                                )
(    Software Version : 17.4S036                                      )
(    Date/Time        : Sat Sep 14 16:52:12 2024                      )
(                                                                     )
(---------------------------------------------------------------------)


Report methodology:
  - Dangling lines have at least one end not connected.
  - Dangling vias have one or no connection
      - Plus are not a test, thieving or netshort property via.
  - Not part of the current partition.
  - To suppress items in dangle report add the OK_DANGLE property to the via
    or connect line.



<< Dangling Vias >>
  Net                  Padstack               Location            Layers
  ---------------------------------------------------------------------------
  1V2_RB               VIA_16D10            (1033.60 954.40) TOP/BOTTOM 
  GND                  VIA_16D10            (5243.20 -99.40) TOP/BOTTOM 

<< Summary >>
  Total dangling lines:       0
  Total dangling vias:        2
