(---------------------------------------------------------------------)
(                                                                     )
(    Dangling Line and Via Report                                     )
(                                                                     )
(    Drawing          : 245897078002829.dra                           )
(    Software Version : 17.4S036                                      )
(    Date/Time        : Wed Sep 11 19:09:00 2024                      )
(                                                                     )
(---------------------------------------------------------------------)


Report methodology:
  - Dangling lines have at least one end not connected.
  - Dangling vias have one or no connection
      - Plus are not a test, thieving or netshort property via.
  - Not part of the current partition.
  - To suppress items in dangle report add the OK_DANGLE property to the via
    or connect line.


<< Summary >>
  Total dangling lines:       0
  Total dangling vias:        0
